{
	"ImportPath": "dropcam",
	"GoVersion": "go1.2.2",
	"Deps": [
		{
			"ImportPath": "github.com/howeyc/fsnotify",
			"Comment": "v0.9.0-11-g6b1ef89",
			"Rev": "6b1ef893dc11e0447abda6da20a5203481878dda"
		}
	]
}
